2
7
3
2
2
7
7
9
4
4
3
4
1
3
10
6
4
9
9
4
1
4
7
5
5
8
3
5
9
9
6
6
2
6
2
1
5
3
5
8
5
9
6
2
10
4
5
10
2
6
9
4
7
7
6
7
7
7
6
6
2
2
1
10
1
6
9
5
2
3
9
1
3
2
7
1
2
10
1
5
9
1
10
6
5
1
8
7
8
5
4
1
2
4
8
9
6
8
5
10
2
5
5
5
3
3
1
4
1
10
6
5
9
4
4
2
1
3
5
9
10
10
6
3
4
10
1
9
5
7
9
4
